/home/m2eserv/mallet/Bureau/Java EE/tp2/week201/src/main/java/user/dao/UserJDBCDao.java
/home/m2eserv/mallet/Bureau/Java EE/tp2/week201/src/main/java/user/model/User.java
/home/m2eserv/mallet/Bureau/Java EE/tp2/week201/src/main/java/user/dao/UserDao.java
/home/m2eserv/mallet/Bureau/Java EE/tp2/week201/src/main/java/App.java
